{"id":"1","tags":["barna","gol","football","winner","champion","stadium","final","cup","best","a","tag","try"]}
{"id":"2","tags":["barna","gol","football","winner","champion","stadium","final","cup","best","b","tag","try2"]}
{"id":"3","tags":["barna","gol","football","winner","champion","stadium","final","cup","best","c","tag","try3"]}
{"id":"4","tags":["barna","gol","football","winner","champion","stadium","final","cup","best","d","tag","try4"]}
{"id":"5","tags":["barna","gol","football","winner","champion","stadium","final","cup","best","e","tag","try5"]}
{"id":"6","tags":["barna","gol","football","winner","champion","stadium","final","cup","best","f","tag","try6"]}
{"id":"7","tags":["barna","gol","football","winner","champion","stadium","final","cup","best","a","tag","try7"]}
{"id":"8","tags":["barna","gol","football","winner","champion","stadium","final","cup","best","b","tag","try8"]}
{"id":"9","tags":["barna","gol","football","winner","champion","stadium","final","cup","best","c","tag","try9"]}
{"id":"10","tags":["barna","gol","football","winner","champion","stadium","final","cup","best","d","tag","try10"]}
{"id":"11","tags":["barna","gol","football","winner","champion","stadium","final","cup","best","e","tag","try10"]}
{"id":"12","tags":["barna","gol","football","winner","champion","stadium","final","cup","best","f","tag","try11"]}
{"id":"13","tags":["barna","gol","football","winner","champion","stadium","final","cup","best","x","tag","try12"]}
{"id":"14","tags":["barna","gol","football","winner","champion","stadium","final","cup","best","x","tag","try13"]}
{"id":"15","tags":["barna","gol","football","winner","champion","stadium","final","cup","best","x","tag","try14"]}
{"id":"16","tags":["barna","gol","football","winner","champion","stadium","final","cup","best","x","tag","try15"]}
{"id":"17","tags":["barna","gol","football","winner","champion","stadium","final","cup","best","x","tag","try16"]}
{"id":"18","tags":["barna","gol","football","winner","champion","stadium","final","cup","best","x","tag","try17"]}
{"id":"19","tags":["barna","gol","football","winner","champion","stadium","final","cup","best","x","tag","try18"]}
{"id":"20","tags":["barna","gol","football","winner","champion","stadium","final","cup","best","x","tag","try19"]}
{"id":"21","tags":["barna","gol","football","winner","champion","stadium","final","cup","best","x","tag","try20"]}
{"id":"22","tags":["barna","gol","football","winner","champion","stadium","final","cup","best","y","tag","try21"]}
{"id":"23","tags":["barna","gol","football","winner","champion","stadium","final","cup","best","y","tag","try22"]}
{"id":"24","tags":["barna","gol","football","winner","champion","stadium","final","cup","best","y","tag","try23"]}
{"id":"25","tags":["barna","gol","football","winner","champion","stadium","final","cup","best","y","tag","try24"]}
{"id":"26","tags":["barna","gol","football","winner","champion","stadium","final","cup","best","z","tag","try25"]}
{"id":"27","tags":["barna","gol","football","winner","champion","stadium","final","cup","best","z","tag","try26"]}
{"id":"28","tags":["barna","gol","football","winner","champion","stadium","final","cup","best","z","tag","try27"]}
{"id":"29","tags":["barna","gol","football","winner","champion","stadium","final","cup","best","z","tag","try28"]}
{"id":"30","tags":["barna","gol","football","winner","champion","stadium","final","cup","best","1","tag","try29"]}
{"id":"31","tags":["barna","gol","football","winner","champion","stadium","final","cup","best","1","tag","try30"]}
{"id":"32","tags":["barna","gol","football","winner","champion","stadium","final","cup","best","1","tag","try31"]}
{"id":"33","tags":["barna","gol","football","winner","champion","stadium","final","cup","best","1","tag","try32"]}
{"id":"34","tags":["barna","gol","football","winner","champion","stadium","final","cup","best","2","tag","try33"]}
{"id":"35","tags":["barna","gol","football","winner","champion","stadium","final","cup","best","a","tag","try34"]}
{"id":"36","tags":["barna","gol","football","winner","champion","stadium","final","cup","best","a","tag","try35"]}
{"id":"37","tags":["barna","gol","football","winner","champion","stadium","final","cup","best","a","tag","try36"]}
{"id":"38","tags":["barna","gol","football","winner","champion","stadium","final","cup","best","a","tag","try37"]}
{"id":"39","tags":["barna","gol","football","winner","champion","stadium","final","cup","best","a","tag","try38"]}
{"id":"40","tags":["barna","gol","football","winner","champion","stadium","final","cup","best","a","tag","try39"]}
{"id":"41","tags":["barna","gol","football","winner","champion","stadium","final","cup","best","a","tag","try40"]}
{"id":"42","tags":["barna","gol","football","winner","champion","stadium","final","cup","best","v","tag","try41"]}
{"id":"43","tags":["barna","gol","football","winner","champion","stadium","final","cup","best","v","tag","try42"]}
{"id":"44","tags":["barna","gol","football","winner","champion","stadium","final","cup","best","v","tag","try43"]}
{"id":"45","tags":["barna","gol","football","winner","champion","stadium","final","cup","best","v","tag","try44"]}
{"id":"46","tags":["barna","gol","football","winner","champion","stadium","final","cup","best","a","tag","try45"]}
{"id":"47","tags":["barna","gol","football","winner","champion","stadium","final","cup","best","4","tag","try46"]}
{"id":"48","tags":["barna","gol","football","winner","champion","stadium","final","cup","best","4","tag","try47"]}
{"id":"49","tags":["barna","gol","football","winner","champion","stadium","final","cup","best","4","tag","try48"]}
{"id":"50","tags":["barna","gol","football","winner","champion","stadium","final","cup","best","5","tag1","try49"]}
{"id":"51","tags":["barna","gol","football","winner","champion","stadium","final","cup","best","5","tag1","try50"]}
{"id":"52","tags":["barna","gol","football","winner","champion","stadium","final","cup","best","5","tag1","try49"]}
{"id":"53","tags":["barna","gol","football","winner","champion","stadium","final","cup","best","5","tag1","try1"]}
{"id":"54","tags":["barna","gol","football","winner","champion","stadium","final","cup","best","r","tag1","try2"]}
{"id":"55","tags":["barna","gol","football","winner","champion","stadium","final","cup","best","r","tag1","try3"]}
{"id":"56","tags":["barna","gol","football","winner","champion","stadium","final","cup","best","r","tag1","try4"]}
{"id":"57","tags":["barna","gol","football","winner","champion","stadium","final","cup","best","r","tag1","try5"]}
{"id":"58","tags":["barna","gol","football","winner","champion","stadium","final","cup","best","r","tag1","try6"]}
{"id":"59","tags":["barna","gol","football","winner","champion","stadium","final","cup","best","r","tag1","try7"]}
{"id":"60","tags":["barna","gol","football","winner","champion","stadium","final","cup","best","r","tag1","try8"]}
{"id":"61","tags":["barna","gol","football","winner","champion","stadium","final","cup","best","r","tag1","try9"]}
{"id":"62","tags":["barna","gol","football","winner","champion","stadium","final","cup","best","r","tag1","try10"]}
{"id":"63","tags":["barna","gol","football","winner","champion","stadium","final","cup","best","r","tag1","try11"]}
{"id":"64","tags":["barna","gol","football","winner","champion","stadium","final","cup","best","r","tag1","try12"]}
{"id":"65","tags":["barna","gol","football","winner","champion","stadium","final","cup","best","r","tag1","try13"]}
{"id":"66","tags":["barna","gol","football","winner","champion","stadium","final","cup","best","r","tag1","try14"]}
{"id":"67","tags":["barna","gol","football","winner","champion","stadium","final","cup","best","r","tag1","try15"]}
{"id":"68","tags":["barna","gol","football","winner","champion","stadium","final","cup","best","r","tag1","try16"]}
{"id":"69","tags":["barna","gol","football","winner","champion","stadium","final","cup","best","r","tag1","try17"]}
{"id":"70","tags":["barna","gol","football","winner","champion","stadium","final","cup","best","r","tag1","try18"]}
{"id":"71","tags":["barna","gol","football","winner","champion","stadium","final","cup","best","r","tag1","try19"]}
{"id":"72","tags":["barna","gol","football","winner","champion","stadium","final","cup","best","r","tag1","try20"]}
{"id":"73","tags":["barna","gol","football","winner","champion","stadium","final","cup","best","r","tag1","try21"]}
{"id":"74","tags":["barna","gol","football","winner","champion","stadium","final","cup","best","o","tag1","try22"]}
{"id":"75","tags":["barna","gol","football","winner","champion","stadium","final","cup","best","o","tag1","try23"]}
{"id":"76","tags":["barna","gol","football","winner","champion","stadium","final","cup","best","o","tag1","try24"]}
{"id":"77","tags":["barna","gol","football","winner","champion","stadium","final","cup","best","o","tag1","try25"]}
{"id":"78","tags":["barna","gol","football","winner","champion","stadium","final","cup","best","o","tag1","try26"]}
{"id":"79","tags":["barna","gol","football","winner","champion","stadium","final","cup","best","l","tag1","try27"]}
{"id":"80","tags":["barna","gol","football","winner","champion","stadium","final","cup","best","l","tag1","try28"]}
{"id":"81","tags":["barna","gol","football","winner","champion","stadium","final","cup","best","m","tag1","try29"]}
{"id":"82","tags":["barna","gol","football","winner","champion","stadium","final","cup","best","n","tag1","try30"]}
{"id":"83","tags":["barna","gol","football","winner","champion","stadium","final","cup","best","z","tag1","try31"]}
{"id":"84","tags":["barna","gol","football","winner","champion","stadium","final","cup","best","z","tag1","try32"]}
{"id":"85","tags":["barna","gol","football","winner","champion","stadium","final","cup","best","z","tag1","try33"]}
{"id":"86","tags":["barna","gol","football","winner","champion","stadium","final","cup","best","z","tag1","try34"]}
{"id":"87","tags":["barna","gol","football","winner","champion","stadium","final","cup","best","z","tag1","try35"]}
{"id":"88","tags":["barna","gol","football","winner","champion","stadium","final","cup","best","z","tag1","try36"]}
{"id":"89","tags":["barna","gol","football","winner","champion","stadium","final","cup","best","z","tag1","try37"]}
{"id":"90","tags":["barna","gol","football","winner","champion","stadium","final","cup","best","z","tag1","try38"]}
{"id":"91","tags":["barna","gol","football","winner","champion","stadium","final","cup","best","z","tag1","try39"]}
{"id":"92","tags":["barna","gol","football","winner","champion","stadium","final","cup","best","z","tag1","try40"]}
{"id":"93","tags":["barna","gol","football","winner","champion","stadium","final","cup","best","z","tag1","try41"]}
{"id":"94","tags":["barna","gol","football","winner","champion","stadium","final","cup","best","z","tag1","try42"]}
{"id":"95","tags":["barna","gol","football","winner","champion","stadium","final","cup","best","d","tag1","try43"]}
{"id":"96","tags":["barna","gol","football","winner","champion","stadium","final","cup","best","a","tag1","try44"]}
{"id":"97","tags":["barna","gol","football","winner","champion","stadium","final","cup","best","e","tag1","try45"]}
{"id":"98","tags":["barna","gol","football","winner","champion","stadium","final","cup","best","u","tag1","try46"]}
{"id":"99","tags":["barna","gol","football","winner","champion","stadium","final","cup","best","i","tag1","try47"]}
{"id":"100","tags":["barna","gol","football","winner","champion","stadium","final","cup","best","h","tag1","try48"]}

